-------------------------------------------------------------------------------
Test set: com.victor.parra.ContalinApplicationTests
-------------------------------------------------------------------------------
Tests run: 1, Failures: 0, Errors: 0, Skipped: 0, Time elapsed: 11.003 s - in com.victor.parra.ContalinApplicationTests
